<svg xmlns="http://www.w3.org/2000/svg" width="22" height="14" viewBox="0 0 22 14">
  <path id="icone" d="M21.99,9.9l-.259-2.239a.433.433,0,0,0-.47-.389,1.605,1.605,0,0,1-1.735-1.435,1.636,1.636,0,0,1,1.359-1.817.442.442,0,0,0,.368-.493L21,1.286a1.462,1.462,0,0,0-.528-.973,1.37,1.37,0,0,0-1.039-.3L4.335,1.873A1.39,1.39,0,0,0,3.4,2.41H1.411A1.437,1.437,0,0,0,0,3.868V6.123a.437.437,0,0,0,.422.444,1.64,1.64,0,0,1,0,3.276A.437.437,0,0,0,0,10.287v2.255A1.437,1.437,0,0,0,1.411,14h15.2a1.437,1.437,0,0,0,1.411-1.458v-.685l2.735-.338a1.391,1.391,0,0,0,.941-.546A1.484,1.484,0,0,0,21.99,9.9Zm-4.828,1.17v1.474a.562.562,0,0,1-.551.57H13.946v-.833a.43.43,0,1,0-.859,0v.833H1.411a.562.562,0,0,1-.551-.57V10.686a2.407,2.407,0,0,0,1.278-.709,2.587,2.587,0,0,0,0-3.545A2.406,2.406,0,0,0,.859,5.724V3.868a.562.562,0,0,1,.551-.57H13.087V8.707a.43.43,0,1,0,.859,0V3.3H16.61a.562.562,0,0,1,.551.57V5.724a2.406,2.406,0,0,0-1.278.709,2.587,2.587,0,0,0,0,3.545,2.406,2.406,0,0,0,1.278.709v.382Zm3.861-.645a.544.544,0,0,1-.368.214l-2.633.325v-.675a.437.437,0,0,0-.422-.444,1.64,1.64,0,0,1,0-3.276.437.437,0,0,0,.422-.444V3.868A1.437,1.437,0,0,0,16.61,2.41H7.231L19.529.893a.535.535,0,0,1,.406.118.571.571,0,0,1,.207.38l.213,1.843a2.432,2.432,0,0,0-1.188.86,2.573,2.573,0,0,0-.494,1.846,2.534,2.534,0,0,0,.9,1.674,2.385,2.385,0,0,0,1.35.547L21.136,10A.579.579,0,0,1,21.022,10.423Z" fill="#fff"/>
</svg>
